%YAML 1.1
%TAG !u! tag:unity3d.com,2011:
--- !u!74 &7400000
AnimationClip:
  m_ObjectHideFlags: 0
  m_CorrespondingSourceObject: {fileID: 0}
  m_PrefabInstance: {fileID: 0}
  m_PrefabAsset: {fileID: 0}
  m_Name: smoke
  serializedVersion: 6
  m_Legacy: 0
  m_Compressed: 0
  m_UseHighQualityCurve: 1
  m_RotationCurves: []
  m_CompressedRotationCurves: []
  m_EulerCurves: []
  m_PositionCurves: []
  m_ScaleCurves: []
  m_FloatCurves: []
  m_PPtrCurves:
  - curve:
    - time: 0
      value: {fileID: 21300000, guid: 7e02aeec94aada047a7a5e442f9ee7f9, type: 3}
    - time: 0.25
      value: {fileID: 21300000, guid: 9c25e1d8ea5f65d48a20190e8bbea614, type: 3}
    - time: 0.5
      value: {fileID: 21300000, guid: 649e36088a12bc74e917b43240f31b41, type: 3}
    - time: 0.75
      value: {fileID: 21300000, guid: 99bd8f1315917dd4ba5e7005f7936d89, type: 3}
    - time: 1
      value: {fileID: 21300000, guid: 328d1b31724a0f94fb722583847cc1d2, type: 3}
    - time: 1.25
      value: {fileID: 21300000, guid: 6b4aa8f6cba1b0d43ba5114d8fcd24ed, type: 3}
    - time: 1.5
      value: {fileID: 21300000, guid: 6d8aec816d8ce324ba3feb322a180874, type: 3}
    - time: 1.75
      value: {fileID: 21300000, guid: 5e1f50fb57e2e064396eef959435adfc, type: 3}
    - time: 2
      value: {fileID: 21300000, guid: 7d5874d35372fa14693899fba2b1b527, type: 3}
    - time: 2.25
      value: {fileID: 21300000, guid: 329323d36d356cb48a0874c1cb393276, type: 3}
    - time: 2.5
      value: {fileID: 21300000, guid: 7e0390c2735982f4897226e3e5b271eb, type: 3}
    attribute: m_Sprite
    path: 
    classID: 212
    script: {fileID: 0}
  m_SampleRate: 12
  m_WrapMode: 0
  m_Bounds:
    m_Center: {x: 0, y: 0, z: 0}
    m_Extent: {x: 0, y: 0, z: 0}
  m_ClipBindingConstant:
    genericBindings:
    - serializedVersion: 2
      path: 0
      attribute: 0
      script: {fileID: 0}
      typeID: 212
      customType: 23
      isPPtrCurve: 1
    pptrCurveMapping:
    - {fileID: 21300000, guid: 7e02aeec94aada047a7a5e442f9ee7f9, type: 3}
    - {fileID: 21300000, guid: 9c25e1d8ea5f65d48a20190e8bbea614, type: 3}
    - {fileID: 21300000, guid: 649e36088a12bc74e917b43240f31b41, type: 3}
    - {fileID: 21300000, guid: 99bd8f1315917dd4ba5e7005f7936d89, type: 3}
    - {fileID: 21300000, guid: 328d1b31724a0f94fb722583847cc1d2, type: 3}
    - {fileID: 21300000, guid: 6b4aa8f6cba1b0d43ba5114d8fcd24ed, type: 3}
    - {fileID: 21300000, guid: 6d8aec816d8ce324ba3feb322a180874, type: 3}
    - {fileID: 21300000, guid: 5e1f50fb57e2e064396eef959435adfc, type: 3}
    - {fileID: 21300000, guid: 7d5874d35372fa14693899fba2b1b527, type: 3}
    - {fileID: 21300000, guid: 329323d36d356cb48a0874c1cb393276, type: 3}
    - {fileID: 21300000, guid: 7e0390c2735982f4897226e3e5b271eb, type: 3}
  m_AnimationClipSettings:
    serializedVersion: 2
    m_AdditiveReferencePoseClip: {fileID: 0}
    m_AdditiveReferencePoseTime: 0
    m_StartTime: 0
    m_StopTime: 2.5833333
    m_OrientationOffsetY: 0
    m_Level: 0
    m_CycleOffset: 0
    m_HasAdditiveReferencePose: 0
    m_LoopTime: 1
    m_LoopBlend: 0
    m_LoopBlendOrientation: 0
    m_LoopBlendPositionY: 0
    m_LoopBlendPositionXZ: 0
    m_KeepOriginalOrientation: 0
    m_KeepOriginalPositionY: 1
    m_KeepOriginalPositionXZ: 0
    m_HeightFromFeet: 0
    m_Mirror: 0
  m_EditorCurves: []
  m_EulerEditorCurves: []
  m_HasGenericRootTransform: 0
  m_HasMotionFloatCurves: 0
  m_Events: []
