%YAML 1.1
%TAG !u! tag:unity3d.com,2011:
--- !u!1 &5595644414086678516
GameObject:
  m_ObjectHideFlags: 0
  m_CorrespondingSourceObject: {fileID: 0}
  m_PrefabInstance: {fileID: 0}
  m_PrefabAsset: {fileID: 0}
  serializedVersion: 6
  m_Component:
  - component: {fileID: 7030208990779472800}
  - component: {fileID: 2898832169924504619}
  - component: {fileID: 1454343770196071210}
  m_Layer: 31
  m_Name: Layer1
  m_TagString: Untagged
  m_Icon: {fileID: 0}
  m_NavMeshLayer: 0
  m_StaticEditorFlags: 0
  m_IsActive: 1
--- !u!4 &7030208990779472800
Transform:
  m_ObjectHideFlags: 0
  m_CorrespondingSourceObject: {fileID: 0}
  m_PrefabInstance: {fileID: 0}
  m_PrefabAsset: {fileID: 0}
  m_GameObject: {fileID: 5595644414086678516}
  m_LocalRotation: {x: -0, y: -0, z: -0, w: 1}
  m_LocalPosition: {x: 0, y: 0, z: 0}
  m_LocalScale: {x: 1, y: 1, z: 1}
  m_Children: []
  m_Father: {fileID: 6736559227179319920}
  m_RootOrder: 0
  m_LocalEulerAnglesHint: {x: 0, y: 0, z: 0}
--- !u!1839735485 &2898832169924504619
Tilemap:
  m_ObjectHideFlags: 0
  m_CorrespondingSourceObject: {fileID: 0}
  m_PrefabInstance: {fileID: 0}
  m_PrefabAsset: {fileID: 0}
  m_GameObject: {fileID: 5595644414086678516}
  m_Enabled: 1
  m_Tiles:
  - first: {x: -1, y: -2, z: 0}
    second:
      serializedVersion: 2
      m_TileIndex: 10
      m_TileSpriteIndex: 10
      m_TileMatrixIndex: 0
      m_TileColorIndex: 0
      m_TileObjectToInstantiateIndex: 65535
      m_AllTileFlags: 1073741825
  - first: {x: 0, y: -2, z: 0}
    second:
      serializedVersion: 2
      m_TileIndex: 11
      m_TileSpriteIndex: 11
      m_TileMatrixIndex: 0
      m_TileColorIndex: 0
      m_TileObjectToInstantiateIndex: 65535
      m_AllTileFlags: 1073741825
  - first: {x: 1, y: -2, z: 0}
    second:
      serializedVersion: 2
      m_TileIndex: 12
      m_TileSpriteIndex: 12
      m_TileMatrixIndex: 0
      m_TileColorIndex: 0
      m_TileObjectToInstantiateIndex: 65535
      m_AllTileFlags: 1073741825
  - first: {x: -2, y: -1, z: 0}
    second:
      serializedVersion: 2
      m_TileIndex: 17
      m_TileSpriteIndex: 17
      m_TileMatrixIndex: 0
      m_TileColorIndex: 0
      m_TileObjectToInstantiateIndex: 65535
      m_AllTileFlags: 1073741825
  - first: {x: -1, y: -1, z: 0}
    second:
      serializedVersion: 2
      m_TileIndex: 6
      m_TileSpriteIndex: 6
      m_TileMatrixIndex: 0
      m_TileColorIndex: 0
      m_TileObjectToInstantiateIndex: 65535
      m_AllTileFlags: 1073741825
  - first: {x: 0, y: -1, z: 0}
    second:
      serializedVersion: 2
      m_TileIndex: 7
      m_TileSpriteIndex: 7
      m_TileMatrixIndex: 0
      m_TileColorIndex: 0
      m_TileObjectToInstantiateIndex: 65535
      m_AllTileFlags: 1073741825
  - first: {x: 1, y: -1, z: 0}
    second:
      serializedVersion: 2
      m_TileIndex: 8
      m_TileSpriteIndex: 8
      m_TileMatrixIndex: 0
      m_TileColorIndex: 0
      m_TileObjectToInstantiateIndex: 65535
      m_AllTileFlags: 1073741825
  - first: {x: 2, y: -1, z: 0}
    second:
      serializedVersion: 2
      m_TileIndex: 9
      m_TileSpriteIndex: 9
      m_TileMatrixIndex: 0
      m_TileColorIndex: 0
      m_TileObjectToInstantiateIndex: 65535
      m_AllTileFlags: 1073741825
  - first: {x: -3, y: 0, z: 0}
    second:
      serializedVersion: 2
      m_TileIndex: 18
      m_TileSpriteIndex: 18
      m_TileMatrixIndex: 0
      m_TileColorIndex: 0
      m_TileObjectToInstantiateIndex: 65535
      m_AllTileFlags: 1073741825
  - first: {x: -2, y: 0, z: 0}
    second:
      serializedVersion: 2
      m_TileIndex: 16
      m_TileSpriteIndex: 16
      m_TileMatrixIndex: 0
      m_TileColorIndex: 0
      m_TileObjectToInstantiateIndex: 65535
      m_AllTileFlags: 1073741825
  - first: {x: -1, y: 0, z: 0}
    second:
      serializedVersion: 2
      m_TileIndex: 0
      m_TileSpriteIndex: 0
      m_TileMatrixIndex: 0
      m_TileColorIndex: 0
      m_TileObjectToInstantiateIndex: 65535
      m_AllTileFlags: 1073741825
  - first: {x: 0, y: 0, z: 0}
    second:
      serializedVersion: 2
      m_TileIndex: 1
      m_TileSpriteIndex: 1
      m_TileMatrixIndex: 0
      m_TileColorIndex: 0
      m_TileObjectToInstantiateIndex: 65535
      m_AllTileFlags: 1073741825
  - first: {x: 1, y: 0, z: 0}
    second:
      serializedVersion: 2
      m_TileIndex: 2
      m_TileSpriteIndex: 2
      m_TileMatrixIndex: 0
      m_TileColorIndex: 0
      m_TileObjectToInstantiateIndex: 65535
      m_AllTileFlags: 1073741825
  - first: {x: 2, y: 0, z: 0}
    second:
      serializedVersion: 2
      m_TileIndex: 13
      m_TileSpriteIndex: 13
      m_TileMatrixIndex: 0
      m_TileColorIndex: 0
      m_TileObjectToInstantiateIndex: 65535
      m_AllTileFlags: 1073741825
  - first: {x: 3, y: 0, z: 0}
    second:
      serializedVersion: 2
      m_TileIndex: 14
      m_TileSpriteIndex: 14
      m_TileMatrixIndex: 0
      m_TileColorIndex: 0
      m_TileObjectToInstantiateIndex: 65535
      m_AllTileFlags: 1073741825
  - first: {x: 3, y: 1, z: 0}
    second:
      serializedVersion: 2
      m_TileIndex: 15
      m_TileSpriteIndex: 15
      m_TileMatrixIndex: 0
      m_TileColorIndex: 0
      m_TileObjectToInstantiateIndex: 65535
      m_AllTileFlags: 1073741825
  - first: {x: -1, y: 2, z: 0}
    second:
      serializedVersion: 2
      m_TileIndex: 3
      m_TileSpriteIndex: 3
      m_TileMatrixIndex: 0
      m_TileColorIndex: 0
      m_TileObjectToInstantiateIndex: 65535
      m_AllTileFlags: 1073741825
  - first: {x: 0, y: 2, z: 0}
    second:
      serializedVersion: 2
      m_TileIndex: 4
      m_TileSpriteIndex: 4
      m_TileMatrixIndex: 0
      m_TileColorIndex: 0
      m_TileObjectToInstantiateIndex: 65535
      m_AllTileFlags: 1073741825
  - first: {x: 1, y: 2, z: 0}
    second:
      serializedVersion: 2
      m_TileIndex: 5
      m_TileSpriteIndex: 5
      m_TileMatrixIndex: 0
      m_TileColorIndex: 0
      m_TileObjectToInstantiateIndex: 65535
      m_AllTileFlags: 1073741825
  m_AnimatedTiles: {}
  m_TileAssetArray:
  - m_RefCount: 1
    m_Data: {fileID: 11400000, guid: e52d31fc1bb4d1242a829b789a642c78, type: 2}
  - m_RefCount: 1
    m_Data: {fileID: 11400000, guid: d41e4ac6be3deab4092c0c376176e299, type: 2}
  - m_RefCount: 1
    m_Data: {fileID: 11400000, guid: 6d767e69fb8fae14cb19e7c3bd1f2683, type: 2}
  - m_RefCount: 1
    m_Data: {fileID: 11400000, guid: 81535833ede53734c97b879d0c37c5b9, type: 2}
  - m_RefCount: 1
    m_Data: {fileID: 11400000, guid: 4db465c4d2ce60c4cabfb632495abd94, type: 2}
  - m_RefCount: 1
    m_Data: {fileID: 11400000, guid: 8c151c995bfd6a942a5f9258429b4060, type: 2}
  - m_RefCount: 1
    m_Data: {fileID: 11400000, guid: 43d3fa3e57fd31a48947be1e055469d7, type: 2}
  - m_RefCount: 1
    m_Data: {fileID: 11400000, guid: 675232bd62726b44597fe65a4c4f3c92, type: 2}
  - m_RefCount: 1
    m_Data: {fileID: 11400000, guid: eaf9eeda167e7f84b8ae89b3482f230f, type: 2}
  - m_RefCount: 1
    m_Data: {fileID: 11400000, guid: 0bea4779873ae7248ae2b1964a441fd3, type: 2}
  - m_RefCount: 1
    m_Data: {fileID: 11400000, guid: f20eb7f727653af47be2a48f9716f9b2, type: 2}
  - m_RefCount: 1
    m_Data: {fileID: 11400000, guid: c38dbf9455eb7fd4cb3221eda671cf09, type: 2}
  - m_RefCount: 1
    m_Data: {fileID: 11400000, guid: aa487882c8ca8e24c9343abeaf17ea3a, type: 2}
  - m_RefCount: 1
    m_Data: {fileID: 11400000, guid: d87f1077600243845801afbab6ac8c1d, type: 2}
  - m_RefCount: 1
    m_Data: {fileID: 11400000, guid: 042c8a03f0e56c644bab28c1198181fe, type: 2}
  - m_RefCount: 1
    m_Data: {fileID: 11400000, guid: c2b635721cb61064d8569af020adc541, type: 2}
  - m_RefCount: 1
    m_Data: {fileID: 11400000, guid: 60bf326b08e9aa543a7aa32e7c24e11d, type: 2}
  - m_RefCount: 1
    m_Data: {fileID: 11400000, guid: 2848115695878fb4b9af650659d5675f, type: 2}
  - m_RefCount: 1
    m_Data: {fileID: 11400000, guid: 279496c6f0bee0b4db9bf4f719387ceb, type: 2}
  m_TileSpriteArray:
  - m_RefCount: 1
    m_Data: {fileID: 1827995097931397665, guid: b96286d26ef6012468da8a8c89fda48d,
      type: 3}
  - m_RefCount: 1
    m_Data: {fileID: -164792677636158115, guid: b96286d26ef6012468da8a8c89fda48d,
      type: 3}
  - m_RefCount: 1
    m_Data: {fileID: 9023102086352441327, guid: b96286d26ef6012468da8a8c89fda48d,
      type: 3}
  - m_RefCount: 1
    m_Data: {fileID: 2682215414760740091, guid: b96286d26ef6012468da8a8c89fda48d,
      type: 3}
  - m_RefCount: 1
    m_Data: {fileID: -2746535692305987031, guid: b96286d26ef6012468da8a8c89fda48d,
      type: 3}
  - m_RefCount: 1
    m_Data: {fileID: -7684697499621502434, guid: b96286d26ef6012468da8a8c89fda48d,
      type: 3}
  - m_RefCount: 1
    m_Data: {fileID: 5349865854072213342, guid: b96286d26ef6012468da8a8c89fda48d,
      type: 3}
  - m_RefCount: 1
    m_Data: {fileID: 6621102843516128069, guid: b96286d26ef6012468da8a8c89fda48d,
      type: 3}
  - m_RefCount: 1
    m_Data: {fileID: 7713994739521176134, guid: b96286d26ef6012468da8a8c89fda48d,
      type: 3}
  - m_RefCount: 1
    m_Data: {fileID: -7656549108978331473, guid: b96286d26ef6012468da8a8c89fda48d,
      type: 3}
  - m_RefCount: 1
    m_Data: {fileID: -3072935261478269516, guid: b96286d26ef6012468da8a8c89fda48d,
      type: 3}
  - m_RefCount: 1
    m_Data: {fileID: -9176310377947360942, guid: b96286d26ef6012468da8a8c89fda48d,
      type: 3}
  - m_RefCount: 1
    m_Data: {fileID: -8069842067830327488, guid: b96286d26ef6012468da8a8c89fda48d,
      type: 3}
  - m_RefCount: 1
    m_Data: {fileID: -2748976755147888090, guid: b96286d26ef6012468da8a8c89fda48d,
      type: 3}
  - m_RefCount: 1
    m_Data: {fileID: 7224862857671775860, guid: b96286d26ef6012468da8a8c89fda48d,
      type: 3}
  - m_RefCount: 1
    m_Data: {fileID: 2777027036953493103, guid: b96286d26ef6012468da8a8c89fda48d,
      type: 3}
  - m_RefCount: 1
    m_Data: {fileID: 5170677361120417655, guid: b96286d26ef6012468da8a8c89fda48d,
      type: 3}
  - m_RefCount: 1
    m_Data: {fileID: -2869464658833845484, guid: b96286d26ef6012468da8a8c89fda48d,
      type: 3}
  - m_RefCount: 1
    m_Data: {fileID: -1078985526754053457, guid: b96286d26ef6012468da8a8c89fda48d,
      type: 3}
  m_TileMatrixArray:
  - m_RefCount: 19
    m_Data:
      e00: 1
      e01: 0
      e02: 0
      e03: 0
      e10: 0
      e11: 1
      e12: 0
      e13: 0
      e20: 0
      e21: 0
      e22: 1
      e23: 0
      e30: 0
      e31: 0
      e32: 0
      e33: 1
  m_TileColorArray:
  - m_RefCount: 19
    m_Data: {r: 1, g: 1, b: 1, a: 1}
  m_TileObjectToInstantiateArray: []
  m_AnimationFrameRate: 1
  m_Color: {r: 1, g: 1, b: 1, a: 1}
  m_Origin: {x: -3, y: -2, z: 0}
  m_Size: {x: 7, y: 5, z: 1}
  m_TileAnchor: {x: 0.5, y: 0.5, z: 0}
  m_TileOrientation: 0
  m_TileOrientationMatrix:
    e00: 1
    e01: 0
    e02: 0
    e03: 0
    e10: 0
    e11: 1
    e12: 0
    e13: 0
    e20: 0
    e21: 0
    e22: 1
    e23: 0
    e30: 0
    e31: 0
    e32: 0
    e33: 1
--- !u!483693784 &1454343770196071210
TilemapRenderer:
  m_ObjectHideFlags: 0
  m_CorrespondingSourceObject: {fileID: 0}
  m_PrefabInstance: {fileID: 0}
  m_PrefabAsset: {fileID: 0}
  m_GameObject: {fileID: 5595644414086678516}
  m_Enabled: 0
  m_CastShadows: 0
  m_ReceiveShadows: 0
  m_DynamicOccludee: 0
  m_MotionVectors: 1
  m_LightProbeUsage: 0
  m_ReflectionProbeUsage: 0
  m_RayTracingMode: 0
  m_RenderingLayerMask: 1
  m_RendererPriority: 0
  m_Materials:
  - {fileID: 10754, guid: 0000000000000000f000000000000000, type: 0}
  m_StaticBatchInfo:
    firstSubMesh: 0
    subMeshCount: 0
  m_StaticBatchRoot: {fileID: 0}
  m_ProbeAnchor: {fileID: 0}
  m_LightProbeVolumeOverride: {fileID: 0}
  m_ScaleInLightmap: 1
  m_ReceiveGI: 1
  m_PreserveUVs: 0
  m_IgnoreNormalsForChartDetection: 0
  m_ImportantGI: 0
  m_StitchLightmapSeams: 1
  m_SelectedEditorRenderState: 0
  m_MinimumChartSize: 4
  m_AutoUVMaxDistance: 0.5
  m_AutoUVMaxAngle: 89
  m_LightmapParameters: {fileID: 0}
  m_SortingLayerID: 0
  m_SortingLayer: 0
  m_SortingOrder: 0
  m_ChunkSize: {x: 32, y: 32, z: 32}
  m_ChunkCullingBounds: {x: 0, y: 0, z: 0}
  m_MaxChunkCount: 16
  m_MaxFrameAge: 16
  m_SortOrder: 0
  m_Mode: 0
  m_DetectChunkCullingBounds: 0
  m_MaskInteraction: 0
--- !u!1 &8808460267957030306
GameObject:
  m_ObjectHideFlags: 0
  m_CorrespondingSourceObject: {fileID: 0}
  m_PrefabInstance: {fileID: 0}
  m_PrefabAsset: {fileID: 0}
  serializedVersion: 6
  m_Component:
  - component: {fileID: 6736559227179319920}
  - component: {fileID: 8480414345311305059}
  m_Layer: 31
  m_Name: Summer
  m_TagString: Untagged
  m_Icon: {fileID: 0}
  m_NavMeshLayer: 0
  m_StaticEditorFlags: 0
  m_IsActive: 1
--- !u!4 &6736559227179319920
Transform:
  m_ObjectHideFlags: 0
  m_CorrespondingSourceObject: {fileID: 0}
  m_PrefabInstance: {fileID: 0}
  m_PrefabAsset: {fileID: 0}
  m_GameObject: {fileID: 8808460267957030306}
  m_LocalRotation: {x: 0, y: 0, z: 0, w: 1}
  m_LocalPosition: {x: 0, y: 0, z: 0}
  m_LocalScale: {x: 1, y: 1, z: 1}
  m_Children:
  - {fileID: 7030208990779472800}
  m_Father: {fileID: 0}
  m_RootOrder: 0
  m_LocalEulerAnglesHint: {x: 0, y: 0, z: 0}
--- !u!156049354 &8480414345311305059
Grid:
  m_ObjectHideFlags: 0
  m_CorrespondingSourceObject: {fileID: 0}
  m_PrefabInstance: {fileID: 0}
  m_PrefabAsset: {fileID: 0}
  m_GameObject: {fileID: 8808460267957030306}
  m_Enabled: 1
  m_CellSize: {x: 0.25, y: 0.25, z: 0}
  m_CellGap: {x: 0, y: 0, z: 0}
  m_CellLayout: 0
  m_CellSwizzle: 0
--- !u!114 &-9133037459600823436
MonoBehaviour:
  m_ObjectHideFlags: 0
  m_CorrespondingSourceObject: {fileID: 0}
  m_PrefabInstance: {fileID: 0}
  m_PrefabAsset: {fileID: 0}
  m_GameObject: {fileID: 0}
  m_Enabled: 1
  m_EditorHideFlags: 0
  m_Script: {fileID: 12395, guid: 0000000000000000e000000000000000, type: 0}
  m_Name: Palette Settings
  m_EditorClassIdentifier: 
  cellSizing: 0
