%YAML 1.1
%TAG !u! tag:unity3d.com,2011:
--- !u!1 &2584334476591944806
GameObject:
  m_ObjectHideFlags: 0
  m_CorrespondingSourceObject: {fileID: 0}
  m_PrefabInstance: {fileID: 0}
  m_PrefabAsset: {fileID: 0}
  serializedVersion: 6
  m_Component:
  - component: {fileID: 5049370307202632271}
  - component: {fileID: 7248060038623206692}
  - component: {fileID: 6424408041057143243}
  m_Layer: 31
  m_Name: Layer1
  m_TagString: Untagged
  m_Icon: {fileID: 0}
  m_NavMeshLayer: 0
  m_StaticEditorFlags: 0
  m_IsActive: 1
--- !u!4 &5049370307202632271
Transform:
  m_ObjectHideFlags: 0
  m_CorrespondingSourceObject: {fileID: 0}
  m_PrefabInstance: {fileID: 0}
  m_PrefabAsset: {fileID: 0}
  m_GameObject: {fileID: 2584334476591944806}
  m_LocalRotation: {x: -0, y: -0, z: -0, w: 1}
  m_LocalPosition: {x: 0, y: 0, z: 0}
  m_LocalScale: {x: 1, y: 1, z: 1}
  m_Children: []
  m_Father: {fileID: 3549713334126042322}
  m_RootOrder: 0
  m_LocalEulerAnglesHint: {x: 0, y: 0, z: 0}
--- !u!1839735485 &7248060038623206692
Tilemap:
  m_ObjectHideFlags: 0
  m_CorrespondingSourceObject: {fileID: 0}
  m_PrefabInstance: {fileID: 0}
  m_PrefabAsset: {fileID: 0}
  m_GameObject: {fileID: 2584334476591944806}
  m_Enabled: 1
  m_Tiles:
  - first: {x: -1, y: -2, z: 0}
    second:
      serializedVersion: 2
      m_TileIndex: 9
      m_TileSpriteIndex: 9
      m_TileMatrixIndex: 0
      m_TileColorIndex: 0
      m_TileObjectToInstantiateIndex: 65535
      m_AllTileFlags: 1073741825
  - first: {x: 0, y: -2, z: 0}
    second:
      serializedVersion: 2
      m_TileIndex: 10
      m_TileSpriteIndex: 10
      m_TileMatrixIndex: 0
      m_TileColorIndex: 0
      m_TileObjectToInstantiateIndex: 65535
      m_AllTileFlags: 1073741825
  - first: {x: 1, y: -2, z: 0}
    second:
      serializedVersion: 2
      m_TileIndex: 11
      m_TileSpriteIndex: 11
      m_TileMatrixIndex: 0
      m_TileColorIndex: 0
      m_TileObjectToInstantiateIndex: 65535
      m_AllTileFlags: 1073741825
  - first: {x: -1, y: -1, z: 0}
    second:
      serializedVersion: 2
      m_TileIndex: 6
      m_TileSpriteIndex: 6
      m_TileMatrixIndex: 0
      m_TileColorIndex: 0
      m_TileObjectToInstantiateIndex: 65535
      m_AllTileFlags: 1073741825
  - first: {x: 0, y: -1, z: 0}
    second:
      serializedVersion: 2
      m_TileIndex: 7
      m_TileSpriteIndex: 7
      m_TileMatrixIndex: 0
      m_TileColorIndex: 0
      m_TileObjectToInstantiateIndex: 65535
      m_AllTileFlags: 1073741825
  - first: {x: 1, y: -1, z: 0}
    second:
      serializedVersion: 2
      m_TileIndex: 8
      m_TileSpriteIndex: 8
      m_TileMatrixIndex: 0
      m_TileColorIndex: 0
      m_TileObjectToInstantiateIndex: 65535
      m_AllTileFlags: 1073741825
  - first: {x: -3, y: 0, z: 0}
    second:
      serializedVersion: 2
      m_TileIndex: 14
      m_TileSpriteIndex: 14
      m_TileMatrixIndex: 0
      m_TileColorIndex: 0
      m_TileObjectToInstantiateIndex: 65535
      m_AllTileFlags: 1073741825
  - first: {x: -2, y: 0, z: 0}
    second:
      serializedVersion: 2
      m_TileIndex: 12
      m_TileSpriteIndex: 12
      m_TileMatrixIndex: 0
      m_TileColorIndex: 0
      m_TileObjectToInstantiateIndex: 65535
      m_AllTileFlags: 1073741825
  - first: {x: -1, y: 0, z: 0}
    second:
      serializedVersion: 2
      m_TileIndex: 0
      m_TileSpriteIndex: 0
      m_TileMatrixIndex: 0
      m_TileColorIndex: 0
      m_TileObjectToInstantiateIndex: 65535
      m_AllTileFlags: 1073741825
  - first: {x: 0, y: 0, z: 0}
    second:
      serializedVersion: 2
      m_TileIndex: 1
      m_TileSpriteIndex: 1
      m_TileMatrixIndex: 0
      m_TileColorIndex: 0
      m_TileObjectToInstantiateIndex: 65535
      m_AllTileFlags: 1073741825
  - first: {x: 1, y: 0, z: 0}
    second:
      serializedVersion: 2
      m_TileIndex: 2
      m_TileSpriteIndex: 2
      m_TileMatrixIndex: 0
      m_TileColorIndex: 0
      m_TileObjectToInstantiateIndex: 65535
      m_AllTileFlags: 1073741825
  - first: {x: 2, y: 0, z: 0}
    second:
      serializedVersion: 2
      m_TileIndex: 15
      m_TileSpriteIndex: 15
      m_TileMatrixIndex: 0
      m_TileColorIndex: 0
      m_TileObjectToInstantiateIndex: 65535
      m_AllTileFlags: 1073741825
  - first: {x: 3, y: 0, z: 0}
    second:
      serializedVersion: 2
      m_TileIndex: 17
      m_TileSpriteIndex: 17
      m_TileMatrixIndex: 0
      m_TileColorIndex: 0
      m_TileObjectToInstantiateIndex: 65535
      m_AllTileFlags: 1073741825
  - first: {x: -3, y: 1, z: 0}
    second:
      serializedVersion: 2
      m_TileIndex: 13
      m_TileSpriteIndex: 13
      m_TileMatrixIndex: 0
      m_TileColorIndex: 0
      m_TileObjectToInstantiateIndex: 65535
      m_AllTileFlags: 1073741825
  - first: {x: 2, y: 1, z: 0}
    second:
      serializedVersion: 2
      m_TileIndex: 18
      m_TileSpriteIndex: 18
      m_TileMatrixIndex: 0
      m_TileColorIndex: 0
      m_TileObjectToInstantiateIndex: 65535
      m_AllTileFlags: 1073741825
  - first: {x: 3, y: 1, z: 0}
    second:
      serializedVersion: 2
      m_TileIndex: 16
      m_TileSpriteIndex: 16
      m_TileMatrixIndex: 0
      m_TileColorIndex: 0
      m_TileObjectToInstantiateIndex: 65535
      m_AllTileFlags: 1073741825
  - first: {x: -1, y: 2, z: 0}
    second:
      serializedVersion: 2
      m_TileIndex: 3
      m_TileSpriteIndex: 3
      m_TileMatrixIndex: 0
      m_TileColorIndex: 0
      m_TileObjectToInstantiateIndex: 65535
      m_AllTileFlags: 1073741825
  - first: {x: 0, y: 2, z: 0}
    second:
      serializedVersion: 2
      m_TileIndex: 4
      m_TileSpriteIndex: 4
      m_TileMatrixIndex: 0
      m_TileColorIndex: 0
      m_TileObjectToInstantiateIndex: 65535
      m_AllTileFlags: 1073741825
  - first: {x: 1, y: 2, z: 0}
    second:
      serializedVersion: 2
      m_TileIndex: 5
      m_TileSpriteIndex: 5
      m_TileMatrixIndex: 0
      m_TileColorIndex: 0
      m_TileObjectToInstantiateIndex: 65535
      m_AllTileFlags: 1073741825
  m_AnimatedTiles: {}
  m_TileAssetArray:
  - m_RefCount: 1
    m_Data: {fileID: 11400000, guid: 86caaa236f0b83540af61b86ed9e9ab8, type: 2}
  - m_RefCount: 1
    m_Data: {fileID: 11400000, guid: fe5b2aec2b828254ba3bd7d7f9e77fc2, type: 2}
  - m_RefCount: 1
    m_Data: {fileID: 11400000, guid: 70996d1e7b6b60a44836622e894a4478, type: 2}
  - m_RefCount: 1
    m_Data: {fileID: 11400000, guid: 7adc11732e09abb4184ad80598d8f077, type: 2}
  - m_RefCount: 1
    m_Data: {fileID: 11400000, guid: 7d65493b5ca28d049b434008bfc696a5, type: 2}
  - m_RefCount: 1
    m_Data: {fileID: 11400000, guid: 4cead93ea84169748a1d44d236cf40d3, type: 2}
  - m_RefCount: 1
    m_Data: {fileID: 11400000, guid: 7af389c4af593d54291d7e735da516d3, type: 2}
  - m_RefCount: 1
    m_Data: {fileID: 11400000, guid: 292c3df2579a6d445a65f7ed4e66dc63, type: 2}
  - m_RefCount: 1
    m_Data: {fileID: 11400000, guid: cf32ef8cca1cbe849b8b93c8fdfde216, type: 2}
  - m_RefCount: 1
    m_Data: {fileID: 11400000, guid: aa482acd3a339d64d9ef6d1d731bde8c, type: 2}
  - m_RefCount: 1
    m_Data: {fileID: 11400000, guid: f51da91d002016446a9f6694bff44368, type: 2}
  - m_RefCount: 1
    m_Data: {fileID: 11400000, guid: d4ad4ec49b303b84aae85a55d06121af, type: 2}
  - m_RefCount: 1
    m_Data: {fileID: 11400000, guid: f269ca73d27cb2c49bd304eff1534b51, type: 2}
  - m_RefCount: 1
    m_Data: {fileID: 11400000, guid: 5500da065cee220458140803bb6269f5, type: 2}
  - m_RefCount: 1
    m_Data: {fileID: 11400000, guid: 669dd93e7d50ac74181dde83761e4213, type: 2}
  - m_RefCount: 1
    m_Data: {fileID: 11400000, guid: c06c4fdb32187bf48965b92093c95786, type: 2}
  - m_RefCount: 1
    m_Data: {fileID: 11400000, guid: c1b8da9ad584adf42ba61b1ee8a2606a, type: 2}
  - m_RefCount: 1
    m_Data: {fileID: 11400000, guid: f9bdb0eadf715c542b1bdff0580a8543, type: 2}
  - m_RefCount: 1
    m_Data: {fileID: 11400000, guid: c51832cd39214d345a51f053c06e49f6, type: 2}
  m_TileSpriteArray:
  - m_RefCount: 1
    m_Data: {fileID: -7970282567068049019, guid: b96286d26ef6012468da8a8c89fda48d,
      type: 3}
  - m_RefCount: 1
    m_Data: {fileID: 4835901132135053049, guid: b96286d26ef6012468da8a8c89fda48d,
      type: 3}
  - m_RefCount: 1
    m_Data: {fileID: 5757878429627927110, guid: b96286d26ef6012468da8a8c89fda48d,
      type: 3}
  - m_RefCount: 1
    m_Data: {fileID: 9207235267704603176, guid: b96286d26ef6012468da8a8c89fda48d,
      type: 3}
  - m_RefCount: 1
    m_Data: {fileID: -1661734921732177745, guid: b96286d26ef6012468da8a8c89fda48d,
      type: 3}
  - m_RefCount: 1
    m_Data: {fileID: -3205495686948637980, guid: b96286d26ef6012468da8a8c89fda48d,
      type: 3}
  - m_RefCount: 1
    m_Data: {fileID: -6130348340017436618, guid: b96286d26ef6012468da8a8c89fda48d,
      type: 3}
  - m_RefCount: 1
    m_Data: {fileID: -1173327800322296723, guid: b96286d26ef6012468da8a8c89fda48d,
      type: 3}
  - m_RefCount: 1
    m_Data: {fileID: 8986976153694385381, guid: b96286d26ef6012468da8a8c89fda48d,
      type: 3}
  - m_RefCount: 1
    m_Data: {fileID: -6189248477824443964, guid: b96286d26ef6012468da8a8c89fda48d,
      type: 3}
  - m_RefCount: 1
    m_Data: {fileID: 4993449679680760143, guid: b96286d26ef6012468da8a8c89fda48d,
      type: 3}
  - m_RefCount: 1
    m_Data: {fileID: -4839431008680093201, guid: b96286d26ef6012468da8a8c89fda48d,
      type: 3}
  - m_RefCount: 1
    m_Data: {fileID: 5907246120325500410, guid: b96286d26ef6012468da8a8c89fda48d,
      type: 3}
  - m_RefCount: 1
    m_Data: {fileID: 4808025741378538924, guid: b96286d26ef6012468da8a8c89fda48d,
      type: 3}
  - m_RefCount: 1
    m_Data: {fileID: -7809715451739990937, guid: b96286d26ef6012468da8a8c89fda48d,
      type: 3}
  - m_RefCount: 1
    m_Data: {fileID: -6003383776256243608, guid: b96286d26ef6012468da8a8c89fda48d,
      type: 3}
  - m_RefCount: 1
    m_Data: {fileID: 3872875303057759863, guid: b96286d26ef6012468da8a8c89fda48d,
      type: 3}
  - m_RefCount: 1
    m_Data: {fileID: 7240273535410595941, guid: b96286d26ef6012468da8a8c89fda48d,
      type: 3}
  - m_RefCount: 1
    m_Data: {fileID: -8679813157546937129, guid: b96286d26ef6012468da8a8c89fda48d,
      type: 3}
  m_TileMatrixArray:
  - m_RefCount: 19
    m_Data:
      e00: 1
      e01: 0
      e02: 0
      e03: 0
      e10: 0
      e11: 1
      e12: 0
      e13: 0
      e20: 0
      e21: 0
      e22: 1
      e23: 0
      e30: 0
      e31: 0
      e32: 0
      e33: 1
  m_TileColorArray:
  - m_RefCount: 19
    m_Data: {r: 1, g: 1, b: 1, a: 1}
  m_TileObjectToInstantiateArray: []
  m_AnimationFrameRate: 1
  m_Color: {r: 1, g: 1, b: 1, a: 1}
  m_Origin: {x: -3, y: -2, z: 0}
  m_Size: {x: 7, y: 5, z: 1}
  m_TileAnchor: {x: 0.5, y: 0.5, z: 0}
  m_TileOrientation: 0
  m_TileOrientationMatrix:
    e00: 1
    e01: 0
    e02: 0
    e03: 0
    e10: 0
    e11: 1
    e12: 0
    e13: 0
    e20: 0
    e21: 0
    e22: 1
    e23: 0
    e30: 0
    e31: 0
    e32: 0
    e33: 1
--- !u!483693784 &6424408041057143243
TilemapRenderer:
  m_ObjectHideFlags: 0
  m_CorrespondingSourceObject: {fileID: 0}
  m_PrefabInstance: {fileID: 0}
  m_PrefabAsset: {fileID: 0}
  m_GameObject: {fileID: 2584334476591944806}
  m_Enabled: 0
  m_CastShadows: 0
  m_ReceiveShadows: 0
  m_DynamicOccludee: 0
  m_MotionVectors: 1
  m_LightProbeUsage: 0
  m_ReflectionProbeUsage: 0
  m_RayTracingMode: 0
  m_RenderingLayerMask: 1
  m_RendererPriority: 0
  m_Materials:
  - {fileID: 10754, guid: 0000000000000000f000000000000000, type: 0}
  m_StaticBatchInfo:
    firstSubMesh: 0
    subMeshCount: 0
  m_StaticBatchRoot: {fileID: 0}
  m_ProbeAnchor: {fileID: 0}
  m_LightProbeVolumeOverride: {fileID: 0}
  m_ScaleInLightmap: 1
  m_ReceiveGI: 1
  m_PreserveUVs: 0
  m_IgnoreNormalsForChartDetection: 0
  m_ImportantGI: 0
  m_StitchLightmapSeams: 1
  m_SelectedEditorRenderState: 0
  m_MinimumChartSize: 4
  m_AutoUVMaxDistance: 0.5
  m_AutoUVMaxAngle: 89
  m_LightmapParameters: {fileID: 0}
  m_SortingLayerID: 0
  m_SortingLayer: 0
  m_SortingOrder: 0
  m_ChunkSize: {x: 32, y: 32, z: 32}
  m_ChunkCullingBounds: {x: 0, y: 0, z: 0}
  m_MaxChunkCount: 16
  m_MaxFrameAge: 16
  m_SortOrder: 0
  m_Mode: 0
  m_DetectChunkCullingBounds: 0
  m_MaskInteraction: 0
--- !u!1 &6858157722857166607
GameObject:
  m_ObjectHideFlags: 0
  m_CorrespondingSourceObject: {fileID: 0}
  m_PrefabInstance: {fileID: 0}
  m_PrefabAsset: {fileID: 0}
  serializedVersion: 6
  m_Component:
  - component: {fileID: 3549713334126042322}
  - component: {fileID: 7531875504100213357}
  m_Layer: 31
  m_Name: autumn
  m_TagString: Untagged
  m_Icon: {fileID: 0}
  m_NavMeshLayer: 0
  m_StaticEditorFlags: 0
  m_IsActive: 1
--- !u!4 &3549713334126042322
Transform:
  m_ObjectHideFlags: 0
  m_CorrespondingSourceObject: {fileID: 0}
  m_PrefabInstance: {fileID: 0}
  m_PrefabAsset: {fileID: 0}
  m_GameObject: {fileID: 6858157722857166607}
  m_LocalRotation: {x: 0, y: 0, z: 0, w: 1}
  m_LocalPosition: {x: 0, y: 0, z: 0}
  m_LocalScale: {x: 1, y: 1, z: 1}
  m_Children:
  - {fileID: 5049370307202632271}
  m_Father: {fileID: 0}
  m_RootOrder: 0
  m_LocalEulerAnglesHint: {x: 0, y: 0, z: 0}
--- !u!156049354 &7531875504100213357
Grid:
  m_ObjectHideFlags: 0
  m_CorrespondingSourceObject: {fileID: 0}
  m_PrefabInstance: {fileID: 0}
  m_PrefabAsset: {fileID: 0}
  m_GameObject: {fileID: 6858157722857166607}
  m_Enabled: 1
  m_CellSize: {x: 0.25, y: 0.25, z: 0}
  m_CellGap: {x: 0, y: 0, z: 0}
  m_CellLayout: 0
  m_CellSwizzle: 0
--- !u!114 &203071053953053787
MonoBehaviour:
  m_ObjectHideFlags: 0
  m_CorrespondingSourceObject: {fileID: 0}
  m_PrefabInstance: {fileID: 0}
  m_PrefabAsset: {fileID: 0}
  m_GameObject: {fileID: 0}
  m_Enabled: 1
  m_EditorHideFlags: 0
  m_Script: {fileID: 12395, guid: 0000000000000000e000000000000000, type: 0}
  m_Name: Palette Settings
  m_EditorClassIdentifier: 
  cellSizing: 0
